1, 9, Ok
2, 283, Ok
3, 270, Ok
4, 568, Ok
5, 235, Ok
6, 183, Ok
7, 209, Ok
8, 234, Ok
9, 159, Ok
10, 465, Ok
11, 464, Ok
12, 506, Ok
13, 516, Ok
14, 452, Ok
15, 476, Ok
16, 449, Ok
17, 440, Ok
18, 273, Ok
19, 407, Ok
20, 429, Ok
21, 1223, Ok
22, 414, Ok
23, 672, Ok
24, 1101, Ok
25, 764, Ok
26, 1119, Ok
27, 800, Ok
28, 1269, Ok
29, 589, Ok
30, 452, Ok
31, 1452, Ok
32, 1471, Ok
33, 653, Ok
34, 1346, Ok
35, 1123, Ok
36, 360, Ok
37, 1228, Ok
38, 770, Ok
39, 939, Ok
40, 1209, Ok
41, 1239, Ok
42, 1070, Ok
43, 1263, Ok
44, 1111, Ok
45, 1190, Ok
46, 1030, Ok
47, 549, Ok
48, 689, Ok
49, 578, Ok
50, 1265, Ok
51, 1665, Ok
52, 2540, Ok
53, 1542, Ok
54, 1426, Ok
55, 1625, Ok
56, 1873, Ok
57, 1837, Ok
58, 1674, Ok
59, 1713, Ok
60, 1980, Ok
61, 1511, Ok
62, 3328, Ok
63, 3076, Ok
64, 1821, Ok
65, 2133, Ok
66, 1765, Ok
67, 1501, Ok
68, 1355, Ok
69, 1704, Ok
70, 1693, Ok
71, 1680, Ok
72, 2507, Ok
73, 2246, Ok
74, 1853, Ok
75, 1661, Ok
76, 1903, Ok
77, 1286, Ok
78, 2036, Ok
79, 1892, Ok
80, 1845, Ok
81, 1333, Ok
82, 1879, Ok
83, 1860, Ok
84, 1982, Ok
85, 2291, Ok
86, 2422, Ok
87, 2228, Ok
88, 3079, Ok
89, 2240, Ok
90, 3438, Ok
91, 2342, Ok
92, 2042, Ok
93, 1987, Ok
94, 1732, Ok
95, 1876, Ok
96, 3639, Ok
97, 2317, Ok
98, 3442, Ok
99, 1921, Ok
100, 1764, Ok
101, 5700, Ok
102, 5091, Ok
103, 6537, Ok
104, 5873, Ok
105, 5479, Ok
106, 5869, Ok
107, 4809, Ok
108, 6470, Ok
109, 6305, Ok
110, 5536, Ok
111, 5827, Ok
112, 5197, Ok
113, 4575, Ok
114, 4814, Ok
115, 4955, Ok
116, 4915, Ok
117, 5856, Ok
118, 6103, Ok
119, 5987, Ok
120, 5820, Ok
121, 6182, Ok
122, 6147, Ok
123, 5857, Ok
124, 10681, Ok
125, 5982, Ok
126, 6540, Ok
127, 4344, Ok
128, 5863, Ok
129, 6963, Ok
130, 5696, Ok
131, 6307, Ok
132, 5926, Ok
133, 4449, Ok
134, 5823, Ok
135, 6268, Ok
136, 7057, Ok
137, 5702, Ok
138, 7146, Ok
139, 4831, Ok
140, 7744, Ok
141, 5068, Ok
142, 4113, Ok
143, 5934, Ok
144, 6378, Ok
145, 6237, Ok
146, 5566, Ok
147, 6586, Ok
148, 3904, Ok
149, 6238, Ok
150, 5046, Ok
151, 1231, Ok
152, 1752, Ok
153, 1178, Ok
154, 1253, Ok
155, 1341, Ok
156, 1040, Ok
157, 1099, Ok
158, 1083, Ok
159, 798, Ok
160, 1788, Ok
161, 1696, Ok
162, 2106, Ok
163, 1021, Ok
164, 1404, Ok
165, 1760, Ok
166, 1801, Ok
167, 3921, Ok
168, 1655, Ok
169, 2105, Ok
170, 3346, Ok
171, 1889, Ok
172, 2316, Ok
173, 1779, Ok
174, 2241, Ok
175, 1707, Ok
176, 4000, Ok
177, 2153, Ok
178, 2072, Ok
179, 1813, Ok
180, 3118, Ok
181, 4645, Ok
182, 3064, Ok
183, 5561, Ok
184, 4052, Ok
185, 3478, Ok
186, 2952, Ok
187, 2166, Ok
188, 5259, Ok
189, 5550, Ok
190, 4144, Ok
191, 5096, Ok
192, 5618, Ok
193, 5907, Ok
194, 5991, Ok
195, 6305, Ok
196, 5797, Ok
197, 6840, Ok
198, 5145, Ok
199, 6078, Ok
200, 5163, Ok
201, 6075, Ok
202, 5587, Ok
203, 5730, Ok
204, 6244, Ok
205, 6031, Ok
206, 6381, Ok
207, 5990, Ok
208, 6097, Ok
209, 4816, Ok
210, 5993, Ok
211, 14174, Ok
212, 11656, Ok
213, 15037, Ok
214, 13254, Ok
215, 13974, Ok
216, 14857, Ok
217, 12711, Ok
218, 18807, Ok
219, 15834, Ok
220, 15623, Ok
221, 1183, Ok
222, 1491, Ok
223, 1412, Ok
224, 1727, Ok
225, 1225, Ok
226, 1285, Ok
227, 1115, Ok
228, 900, Ok
229, 1057, Ok
230, 1109, Ok
231, 1478, Ok
232, 1844, Ok
233, 1756, Ok
234, 1638, Ok
235, 1334, Ok
236, 1875, Ok
237, 2190, Ok
238, 1751, Ok
239, 1671, Ok
240, 1790, Ok
241, 3040, Ok
242, 3151, Ok
243, 2185, Ok
244, 3341, Ok
245, 2431, Ok
246, 2892, Ok
247, 2508, Ok
248, 2343, Ok
249, 2347, Ok
250, 2796, Ok
251, 3685, Ok
252, 4459, Ok
253, 3234, Ok
254, 2786, Ok
255, 4517, Ok
256, 3287, Ok
257, 3768, Ok
258, 2797, Ok
259, 4356, Ok
260, 3978, Ok
261, 3285, Ok
262, 4640, Ok
263, 3794, Ok
264, 3943, Ok
265, 3002, Ok
266, 3722, Ok
267, 3567, Ok
268, 4192, Ok
269, 4215, Ok
270, 4392, Ok
271, 6335, Ok
272, 6646, Ok
273, 12623, Ok
274, 6793, Ok
275, 4811, Ok
276, 7817, Ok
277, 12827, Ok
278, 7458, Ok
279, 9267, Ok
280, 6777, Ok
281, 7159, Ok
282, 6843, Ok
283, 6356, Ok
284, 6099, Ok
285, 6589, Ok
286, 9104, Ok
287, 9070, Ok
288, 6711, Ok
289, 10857, Ok
290, 6491, Ok
291, 8555, Ok
292, 10045, Ok
293, 8920, Ok
294, 9445, Ok
295, 8317, Ok
296, 3500, Ok
297, 5139, Ok
298, 7390, Ok
299, 10774, Ok
300, 7935, Ok