1, 9, Ok
2, 506, Ok
3, 270, Ok
4, 568, Ok
5, 238, Ok
6, 183, Ok
7, 209, Ok
8, 246, Ok
9, 159, Ok
10, 465, Ok
11, 469, Ok
12, 515, Ok
13, 516, Ok
14, 452, Ok
15, 476, Ok
16, 469, Ok
17, 454, Ok
18, 502, Ok
19, 438, Ok
20, 437, Ok
21, 1379, Ok
22, 735, Ok
23, 1210, Ok
24, 1173, Ok
25, 798, Ok
26, 1152, Ok
27, 1466, Ok
28, 1324, Ok
29, 1040, Ok
30, 837, Ok
31, 1514, Ok
32, 1471, Ok
33, 1240, Ok
34, 1513, Ok
35, 1123, Ok
36, 639, Ok
37, 1244, Ok
38, 770, Ok
39, 952, Ok
40, 1221, Ok
41, 1239, Ok
42, 1122, Ok
43, 1291, Ok
44, 1156, Ok
45, 1281, Ok
46, 1030, Ok
47, 963, Ok
48, 1219, Ok
49, 1072, Ok
50, 1399, Ok
51, 2800, Ok
52, 2708, Ok
53, 2657, Ok
54, 2619, Ok
55, 2875, Ok
56, 3554, Ok
57, 3344, Ok
58, 3076, Ok
59, 3004, Ok
60, 2066, Ok
61, 2949, Ok
62, 3603, Ok
63, 3354, Ok
64, 3031, Ok
65, 3666, Ok
66, 3059, Ok
67, 2886, Ok
68, 2502, Ok
69, 2975, Ok
70, 2829, Ok
71, 2863, Ok
72, 2764, Ok
73, 4154, Ok
74, 3301, Ok
75, 2927, Ok
76, 3600, Ok
77, 2315, Ok
78, 2036, Ok
79, 3330, Ok
80, 3210, Ok
81, 2392, Ok
82, 3691, Ok
83, 3488, Ok
84, 3519, Ok
85, 4155, Ok
86, 2422, Ok
87, 3676, Ok
88, 3176, Ok
89, 4370, Ok
90, 3624, Ok
91, 3965, Ok
92, 3533, Ok
93, 3339, Ok
94, 2933, Ok
95, 3598, Ok
96, 3808, Ok
97, 4110, Ok
98, 3442, Ok
99, 3348, Ok
100, 3230, Ok
101, 10110, Ok
102, 8995, Ok
103, 10937, Ok
104, 9802, Ok
105, 9661, Ok
106, 9908, Ok
107, 8324, Ok
108, 10864, Ok
109, 11284, Ok
110, 9553, Ok
111, 9943, Ok
112, 9087, Ok
113, 7476, Ok
114, 8899, Ok
115, 8505, Ok
116, 8422, Ok
117, 10110, Ok
118, 10303, Ok
119, 10046, Ok
120, 9305, Ok
121, 10358, Ok
122, 10552, Ok
123, 9482, Ok
124, 10681, Ok
125, 10128, Ok
126, 10799, Ok
127, 7172, Ok
128, 10275, Ok
129, 11605, Ok
130, 10084, Ok
131, 9786, Ok
132, 10032, Ok
133, 7560, Ok
134, 10099, Ok
135, 10430, Ok
136, 12600, Ok
137, 10025, Ok
138, 11568, Ok
139, 8329, Ok
140, 8814, Ok
141, 8918, Ok
142, 6675, Ok
143, 10200, Ok
144, 10969, Ok
145, 10152, Ok
146, 9280, Ok
147, 11423, Ok
148, 7267, Ok
149, 10394, Ok
150, 8202, Ok
151, 2087, Ok
152, 1926, Ok
153, 2293, Ok
154, 2042, Ok
155, 2423, Ok
156, 1815, Ok
157, 2052, Ok
158, 1954, Ok
159, 1430, Ok
160, 3147, Ok
161, 3040, Ok
162, 3715, Ok
163, 1797, Ok
164, 2637, Ok
165, 3182, Ok
166, 3158, Ok
167, 4064, Ok
168, 2760, Ok
169, 3657, Ok
170, 3391, Ok
171, 3284, Ok
172, 4173, Ok
173, 3215, Ok
174, 4007, Ok
175, 3028, Ok
176, 4067, Ok
177, 3862, Ok
178, 3546, Ok
179, 3236, Ok
180, 3258, Ok
181, 7196, Ok
182, 4894, Ok
183, 9341, Ok
184, 6755, Ok
185, 5696, Ok
186, 4958, Ok
187, 3643, Ok
188, 8396, Ok
189, 8815, Ok
190, 7758, Ok
191, 9057, Ok
192, 9383, Ok
193, 10813, Ok
194, 10256, Ok
195, 10890, Ok
196, 10937, Ok
197, 7340, Ok
198, 9420, Ok
199, 10197, Ok
200, 8172, Ok
201, 11033, Ok
202, 9449, Ok
203, 9924, Ok
204, 11058, Ok
205, 10308, Ok
206, 11977, Ok
207, 10157, Ok
208, 10733, Ok
209, 8324, Ok
210, 10394, Ok
211, 22163, Ok
212, 19670, Ok
213, 23755, Ok
214, 20578, Ok
215, 22570, Ok
216, 23528, Ok
217, 20486, Ok
218, 29461, Ok
219, 25861, Ok
220, 24526, Ok
221, 1718, Ok
222, 2112, Ok
223, 1601, Ok
224, 2049, Ok
225, 1225, Ok
226, 1771, Ok
227, 1218, Ok
228, 941, Ok
229, 1488, Ok
230, 1337, Ok
231, 1674, Ok
232, 2263, Ok
233, 2012, Ok
234, 2515, Ok
235, 1450, Ok
236, 2154, Ok
237, 3162, Ok
238, 2810, Ok
239, 2035, Ok
240, 2393, Ok
241, 3849, Ok
242, 4345, Ok
243, 3006, Ok
244, 3596, Ok
245, 2764, Ok
246, 3332, Ok
247, 2715, Ok
248, 2343, Ok
249, 3993, Ok
250, 3061, Ok
251, 5316, Ok
252, 4533, Ok
253, 3746, Ok
254, 3656, Ok
255, 5992, Ok
256, 3959, Ok
257, 4394, Ok
258, 3906, Ok
259, 6112, Ok
260, 5930, Ok
261, 4088, Ok
262, 4625, Ok
263, 4291, Ok
264, 4823, Ok
265, 3699, Ok
266, 6519, Ok
267, 4689, Ok
268, 5483, Ok
269, 6194, Ok
270, 4889, Ok
271, 6635, Ok
272, 8078, Ok
273, 19854, Ok
274, 7759, Ok
275, 6439, Ok
276, 7817, Ok
277, 13264, Ok
278, 9912, Ok
279, 13699, Ok
280, 7803, Ok
281, 7598, Ok
282, 7089, Ok
283, 7843, Ok
284, 6681, Ok
285, 9378, Ok
286, 10933, Ok
287, 13598, Ok
288, 6841, Ok
289, 16273, Ok
290, 7980, Ok
291, 10273, Ok
292, 12309, Ok
293, 13258, Ok
294, 10409, Ok
295, 8628, Ok
296, 4327, Ok
297, 6019, Ok
298, 9591, Ok
299, 13645, Ok
300, 13072, Ok